*** Life<ConwayCell> 20x6 ***

Generation = 0, Population = 25.
....**
......
......
*...**
.**...
.....*
*.....
...*..
*..*..
......
*.*...
......
.....*
......
**..*.
.**...
.*..**
..*...
......
.*....

Generation = 1, Population = 15.
......
......
......
.*....
.*..**
.*....
......
......
......
.*....
......
......
......
......
***...
..****
.*.*..
......
......
......

Generation = 2, Population = 10.
......
......
......
......
***...
......
......
......
......
......
......
......
......
.*....
.**.*.
*...*.
...*..
......
......
......

Generation = 3, Population = 12.
......
......
......
.*....
.*....
.*....
......
......
......
......
......
......
......
.**...
****..
.**.*.
......
......
......
......

Generation = 4, Population = 7.
......
......
......
......
***...
......
......
......
......
......
......
......
......
*..*..
*.....
*.....
......
......
......
......

Generation = 5, Population = 5.
......
......
......
.*....
.*....
.*....
......
......
......
......
......
......
......
......
**....
......
......
......
......
......

Generation = 6, Population = 3.
......
......
......
......
***...
......
......
......
......
......
......
......
......
......
......
......
......
......
......
......

*** Life<ConwayCell> 19x11 ***

Generation = 0, Population = 21.
...........
...........
...........
**.........
....*.*....
.......**..
*...*......
...*.......
...*.*.....
..*.......*
.....*.....
.......*...
...*......*
...........
...........
........**.
.....*.....
...........
.....*.....

Generation = 1, Population = 8.
...........
...........
...........
...........
.......*...
.....*.*...
...........
...*.......
..***......
....*......
...........
...........
...........
...........
...........
...........
...........
...........
...........

Generation = 2, Population = 8.
...........
...........
...........
...........
......*....
......*....
...........
..***......
..*.*......
....*......
...........
...........
...........
...........
...........
...........
...........
...........
...........

Generation = 3, Population = 7.
...........
...........
...........
...........
...........
...........
...*.......
..*.*......
..*.**.....
...*.......
...........
...........
...........
...........
...........
...........
...........
...........
...........

Generation = 4, Population = 9.
...........
...........
...........
...........
...........
...........
...*.......
..*.**.....
..*.**.....
...**......
...........
...........
...........
...........
...........
...........
...........
...........
...........

Generation = 5, Population = 8.
...........
...........
...........
...........
...........
...........
...**......
..*..*.....
..*........
...***.....
...........
...........
...........
...........
...........
...........
...........
...........
...........

Generation = 6, Population = 9.
...........
...........
...........
...........
...........
...........
...**......
..*.*......
..*..*.....
...**......
....*......
...........
...........
...........
...........
...........
...........
...........
...........

*** Life<ConwayCell> 12x13 ***

Generation = 0, Population = 19.
**..*.....*..
.............
.*...........
..........*..
*..*.......**
.............
.............
.......*.*...
.......*.....
*....*.......
...*.........
..*....*..*..

Generation = 1, Population = 7.
.............
**...........
.............
...........*.
...........*.
.............
.............
........*....
......*.*....
.............
.............
.............

Generation = 2, Population = 2.
.............
.............
.............
.............
.............
.............
.............
.......*.....
.......*.....
.............
.............
.............

Generation = 3, Population = 0.
.............
.............
.............
.............
.............
.............
.............
.............
.............
.............
.............
.............

Generation = 4, Population = 0.
.............
.............
.............
.............
.............
.............
.............
.............
.............
.............
.............
.............

Generation = 5, Population = 0.
.............
.............
.............
.............
.............
.............
.............
.............
.............
.............
.............
.............

*** Life<ConwayCell> 13x18 ***

Generation = 0, Population = 19.
*.......*.........
...............*..
..*..*.*..........
.........*......*.
..................
......*....*......
..................
................*.
..................
................*.
..................
..........*.......
..**.*.....**..*..

Generation = 1, Population = 2.
..................
..................
..................
..................
..................
..................
..................
..................
..................
..................
..................
...........*......
...........*......

Generation = 2, Population = 0.
..................
..................
..................
..................
..................
..................
..................
..................
..................
..................
..................
..................
..................

Generation = 3, Population = 0.
..................
..................
..................
..................
..................
..................
..................
..................
..................
..................
..................
..................
..................

Generation = 4, Population = 0.
..................
..................
..................
..................
..................
..................
..................
..................
..................
..................
..................
..................
..................

Generation = 5, Population = 0.
..................
..................
..................
..................
..................
..................
..................
..................
..................
..................
..................
..................
..................

*** Life<ConwayCell> 16x5 ***

Generation = 0, Population = 15.
..*..
*.*..
..*..
...*.
...**
.....
....*
.....
.....
.....
*.*..
....*
....*
.....
.*.**
.....

Generation = 1, Population = 16.
.*...
..**.
.***.
..***
...**
...**
.....
.....
.....
.....
.....
...*.
.....
...**
.....
.....

Generation = 2, Population = 8.
..*..
...*.
.*...
.*...
.....
...**
.....
.....
.....
.....
.....
.....
...**
.....
.....
.....

Generation = 3, Population = 2.
.....
..*..
..*..
.....
.....
.....
.....
.....
.....
.....
.....
.....
.....
.....
.....
.....

Generation = 4, Population = 0.
.....
.....
.....
.....
.....
.....
.....
.....
.....
.....
.....
.....
.....
.....
.....
.....

Generation = 5, Population = 0.
.....
.....
.....
.....
.....
.....
.....
.....
.....
.....
.....
.....
.....
.....
.....
.....

Generation = 6, Population = 0.
.....
.....
.....
.....
.....
.....
.....
.....
.....
.....
.....
.....
.....
.....
.....
.....

Generation = 7, Population = 0.
.....
.....
.....
.....
.....
.....
.....
.....
.....
.....
.....
.....
.....
.....
.....
.....

*** Life<ConwayCell> 13x12 ***

Generation = 0, Population = 18.
.......*....
...........*
............
*.........**
............
.*....*.....
..*.*.......
............
..**........
.*....*.....
...*........
*...*..*....
.*..........

Generation = 1, Population = 5.
............
............
..........**
............
............
............
............
..*.........
..*.........
...*........
............
............
............

Generation = 2, Population = 2.
............
............
............
............
............
............
............
............
..**........
............
............
............
............

Generation = 3, Population = 0.
............
............
............
............
............
............
............
............
............
............
............
............
............

Generation = 4, Population = 0.
............
............
............
............
............
............
............
............
............
............
............
............
............

Generation = 5, Population = 0.
............
............
............
............
............
............
............
............
............
............
............
............
............

Generation = 6, Population = 0.
............
............
............
............
............
............
............
............
............
............
............
............
............

Generation = 7, Population = 0.
............
............
............
............
............
............
............
............
............
............
............
............
............

*** Life<ConwayCell> 12x6 ***

Generation = 0, Population = 16.
**...*
.*....
.....*
...*..
*.....
......
*.*...
...*.*
......
**....
....**
.*....

Generation = 1, Population = 7.
**....
**....
......
......
......
.*....
......
......
......
......
**....
......

Generation = 2, Population = 4.
**....
**....
......
......
......
......
......
......
......
......
......
......

Generation = 3, Population = 4.
**....
**....
......
......
......
......
......
......
......
......
......
......

Generation = 4, Population = 4.
**....
**....
......
......
......
......
......
......
......
......
......
......

Generation = 5, Population = 4.
**....
**....
......
......
......
......
......
......
......
......
......
......

Generation = 6, Population = 4.
**....
**....
......
......
......
......
......
......
......
......
......
......

Generation = 7, Population = 4.
**....
**....
......
......
......
......
......
......
......
......
......
......

Generation = 8, Population = 4.
**....
**....
......
......
......
......
......
......
......
......
......
......

Generation = 9, Population = 4.
**....
**....
......
......
......
......
......
......
......
......
......
......

*** Life<ConwayCell> 19x17 ***

Generation = 0, Population = 31.
....*..*.*.*..*..
.*......*.......*
........***......
.......*...*.....
...........*.....
.................
.........*.......
...*.............
......*.......*..
......*..........
.*............*..
.....*.........*.
..............*..
......*.....*....
........*........
.................
.................
............*....
*........*.....*.

Generation = 1, Population = 11.
........*........
.......*.........
.......****......
........**.*.....
.................
.................
.................
.................
.................
.................
.................
..............**.
.................
.................
.................
.................
.................
.................
.................

Generation = 2, Population = 4.
.................
.......*.........
.......*..*......
.......*.........
.................
.................
.................
.................
.................
.................
.................
.................
.................
.................
.................
.................
.................
.................
.................

Generation = 3, Population = 3.
.................
.................
......***........
.................
.................
.................
.................
.................
.................
.................
.................
.................
.................
.................
.................
.................
.................
.................
.................

Generation = 4, Population = 3.
.................
.......*.........
.......*.........
.......*.........
.................
.................
.................
.................
.................
.................
.................
.................
.................
.................
.................
.................
.................
.................
.................

Generation = 5, Population = 3.
.................
.................
......***........
.................
.................
.................
.................
.................
.................
.................
.................
.................
.................
.................
.................
.................
.................
.................
.................

*** Life<ConwayCell> 12x8 ***

Generation = 0, Population = 19.
..*..*..
*.......
........
....*..*
..*.*...
...**.*.
*.*.*...
.*..*...
.*......
........
*.......
*....*..

Generation = 1, Population = 12.
........
........
........
...*....
....*...
.**.*...
.**.*...
****....
........
........
........
........

Generation = 2, Population = 11.
........
........
........
........
..*.*...
.**.**..
....*...
*..*....
.**.....
........
........
........

Generation = 3, Population = 17.
........
........
........
........
.**.**..
.**.**..
.**.**..
.***....
.**.....
........
........
........

Generation = 4, Population = 12.
........
........
........
........
.**.**..
*.....*.
*....*..
*...*...
.*.*....
........
........
........

Generation = 5, Population = 11.
........
........
........
........
.*...*..
*...*.*.
**...*..
**..*...
........
........
........
........

*** Life<ConwayCell> 13x6 ***

Generation = 0, Population = 18.
......
....*.
**.***
**....
.*.*..
..*...
......
*.*...
*..*..
......
......
..*..*
...*..

Generation = 1, Population = 16.
......
...***
******
...*..
**....
..*...
.*....
.*....
.*....
......
......
......
......

Generation = 2, Population = 15.
....*.
.*...*
.*...*
...*..
.**...
*.*...
.**...
***...
......
......
......
......
......

Generation = 3, Population = 14.
......
....**
..*.*.
.*....
.***..
*..*..
...*..
*.*...
.*....
......
......
......
......

Generation = 4, Population = 19.
......
...***
...***
.*....
**.*..
.*.**.
.***..
.**...
.*....
......
......
......
......

Generation = 5, Population = 20.
....*.
...*.*
..**.*
**.*..
**.**.
....*.
*...*.
*..*..
.**...
......
......
......
......

Generation = 6, Population = 22.
....*.
..**.*
.*.*..
*.....
**.**.
**..**
...**.
*.**..
.**...
......
......
......
......

Generation = 7, Population = 23.
...**.
..**..
.*.**.
*..**.
..****
**...*
*....*
....*.
.***..
......
......
......
......

Generation = 8, Population = 24.
..***.
......
.*....
.*....
*.*..*
****.*
**..**
.****.
..**..
..*...
......
......
......
